<?xml version="1.0" encoding="UTF-8"?>
<Project>
   <description></description>
   <name>aplikasi-penjaminan-eksisting-online.git</name>
   <tag></tag>
   <UUID>e3666351-5f88-4ff5-836b-b5841e5c3684</UUID>
   <migratedVersion>5.9.0</migratedVersion>
   <pageLoadTimeout>0</pageLoadTimeout>
   <projectFileLocation>D:\Jamkrindo Automation Testing\aplikasi-penjaminan-eksisting-online.git\aplikasi-penjaminan-eksisting-online.git.prj</projectFileLocation>
   <sourceContent>
      <sourceFolderList>
         <sourceFolderConfiguration>
            <url>Include/scripts/groovy</url>
         </sourceFolderConfiguration>
      </sourceFolderList>
      <systemFolderList>
         <systemFolderConfiguration>
            <url>Include/scripts/groovy</url>
         </systemFolderConfiguration>
         <systemFolderConfiguration>
            <url>Include/features</url>
         </systemFolderConfiguration>
         <systemFolderConfiguration>
            <url>Include/config</url>
         </systemFolderConfiguration>
      </systemFolderList>
   </sourceContent>
   <timeStampInProperties>false</timeStampInProperties>
   <type>WEBUI</type>
</Project>
